{
  "status_code": "200",
  "data": {
    "hot": [],
    "suggest": [
      {
        "id": 4,
        "name": "watts",
        "title": "",
        "img_url": "",
        "scores": "10",
        "url": "rtsp://52.64.199.245:1935/tongtongworkshop/rcbFhA94tHXoa304",
        "contents": "每晚深夜故事回放",
        "tags": null,
        "wowza_link": "http://52.64.199.245:1935/tongtongworkshop/rcbFhA94tHXoa304/playlist.m3u8",
        "is_live": "1",
        "created_at": "2016-08-11 09:04:09",
        "updated_at": "2016-08-22 00:50:42",
        "subject": "故事传说",
        "type_id": 2,
        "totalpeople": 0,
        "startlivetime": "2016-08-19 06:42:53",

        "user": {
          "id": 5,
          "nickname": "watts33",
          "email": "watts@cretve.com",
          "role": "anchor",
          "disable": 0,
          "apply": 2,
          "created_at": "2016-08-11 08:58:56",
          "black": 0,
          "profile": {
            "id": 5,
            "user_id": 5,
            "city": "成都33",
            "avatar": "http://106.185.55.185:8768/uploads/5.png?1471508910"
          },

          "room": {
            "id": 4,
            "name": "watts",
            "title": "",
            "img_url": "",
            "scores": "10",
            "url": "rtsp://52.64.199.245:1935/tongtongworkshop/rcbFhA94tHXoa304",
            "contents": "每晚深夜故事回放",
            "tags": null,
            "wowza_link": "http://52.64.199.245:1935/tongtongworkshop/rcbFhA94tHXoa304/playlist.m3u8",
            "is_live": "1",
            "created_at": "2016-08-11 09:04:09",
            "updated_at": "2016-08-22 00:50:42",
            "subject": "故事传说",
            "type_id": 2,
            "totalpeople": 0,
            "startlivetime": "2016-08-19 06:42:53"
          }



        }
      }
    ],
    "new": [
      {
        "id": 4,
        "name": "watts",
        "title": "",
        "img_url": "",
        "scores": "10",
        "url": "rtsp://52.64.199.245:1935/tongtongworkshop/rcbFhA94tHXoa304",
        "contents": "每晚深夜故事回放",
        "tags": null,
        "wowza_link": "http://52.64.199.245:1935/tongtongworkshop/rcbFhA94tHXoa304/playlist.m3u8",
        "is_live": "1",
        "created_at": "2016-08-11 09:04:09",
        "updated_at": "2016-08-22 00:50:42",
        "subject": "故事传说",
        "type_id": 2,
        "totalpeople": 0,
        "startlivetime": "2016-08-19 06:42:53",
        "user": {
          "id": 5,
          "nickname": "watts33",
          "email": "watts@cretve.com",
          "role": "anchor",
          "disable": 0,
          "apply": 2,
          "created_at": "2016-08-11 08:58:56",
          "black": 0,
          "profile": {
            "id": 5,
            "user_id": 5,
            "city": "成都33",
            "avatar": "http://106.185.55.185:8768/uploads/5.png?1471508910"
          },
          "room": {
            "id": 4,
            "name": "watts",
            "title": "",
            "img_url": "",
            "scores": "10",
            "url": "rtsp://52.64.199.245:1935/tongtongworkshop/rcbFhA94tHXoa304",
            "contents": "每晚深夜故事回放",
            "tags": null,
            "wowza_link": "http://52.64.199.245:1935/tongtongworkshop/rcbFhA94tHXoa304/playlist.m3u8",
            "is_live": "1",
            "created_at": "2016-08-11 09:04:09",
            "updated_at": "2016-08-22 00:50:42",
            "subject": "故事传说",
            "type_id": 2,
            "totalpeople": 0,
            "startlivetime": "2016-08-19 06:42:53"
          }
        }
      }
    ],
    "popularity": []
  }