{
  "id": 12,
  "nickname": "sand",
  "email": "sand@cretve.com",
  "role": "anchor",
  "disable": 0,
  "apply": 0,
  "created_at": "2016-08-12 07:25:46",
  "black": 0,
  "profile": {
    "id": 12,
    "user_id": 12,
    "city": "Chengdu",
    "avatar": "http:\/\/106.185.55.185:8768\/uploads\/12.png?1471251478"
  },
  "room": {
    "id": 17,
    "name": "",
    "title": "fasdfac",
    "img_url": null,
    "scores": "10",
    "url": "rtsp:\/\/52.64.199.245:1935\/tongtongworkshop\/VgBiCGyv2CJUtVzz",
    "contents": "234cvc",
    "tags": null,
    "wowza_link": "http:\/\/52.64.199.245:1935\/tongtongworkshop\/VgBiCGyv2CJUtVzz\/playlist.m3u8",
    "wowza_android": null,
    "is_live": "1",
    "disable": "0",
    "created_at": "2016-08-22 06:13:07",
    "updated_at": "2016-08-26 06:14:02",
    "subject": "",
    "type_id": 2,
    "totalpeople": 0,
    "startlivetime": "2016-08-26 06:14:02",
    "app_url": "http:\/\/106.185.55.185:8768\/17"
  }
}}